{
    "data": [
             {
             "companyName": "上海飞扬汽车租赁有限公司",
             "carDateTime": "2016-08-17",
             "carModel": "凯迪拉克",
             "startLocation": "人民广场",
             "roughTravel": "人民广场",
             "createTime": "40分钟前",
             "comments": [
                          {
                          "companyName": "上海大众汽车租赁有限公司",
                          "price": "100"
                          }
                          ]
             },
             {
             "companyName": "上海飞扬汽车租赁有限公司",
             "carDateTime": "2016-08-17",
             "carModel": "凯迪拉克",
             "startLocation": "人民广场",
             "roughTravel": "人民广场",
             "createTime": "40分钟前",
             "comments": [
                          {
                          "companyName": "上海大众汽车租赁有限公司",
                          "price": "100"
                          },
                          {
                          "companyName": "上海大众汽车租赁有限公司",
                          "price": "100"
                          },
                          {
                          "companyName": "上海大众汽车租赁有限公司",
                          "price": "100"
                          },
                          {
                          "companyName": "上海大众汽车租赁有限公司",
                          "price": "100"
                          },
                          {
                          "companyName": "上海大众汽车租赁有限公司",
                          "price": "100"
                          }
                          ]
             },
             {
             "companyName": "上海飞扬汽车租赁有限公司",
             "carDateTime": "2016-08-17",
             "carModel": "凯迪拉克",
             "startLocation": "人民广场",
             "roughTravel": "人民广场",
             "createTime": "40分钟前",
             "comments": [
                          {
                          "companyName": "上海大众汽车租赁有限公司",
                          "price": "100"
                          },
                          {
                          "companyName": "上海大众汽车租赁有限公司",
                          "price": "100"
                          }
                          ]
             }
             ]
}